^C:\USERS\OLEG\SOURCE\REPOS\HELPERSAPP\HELPERSAPP\HELPERSAPP.CPP
C:\USERS\OLEG\SOURCE\REPOS\HELPERSAPP\HELPERSAPP\DEBUG\VC142.PDB
C:\USERS\OLEG\SOURCE\REPOS\HELPERSAPP\HELPERSAPP\DEBUG\VC142.IDB
C:\USERS\OLEG\SOURCE\REPOS\HELPERSAPP\HELPERSAPP\DEBUG\HELPERSAPP.OBJ
